category_name,count,percentage
Education,15407,76.00513048196932
People & Blogs,1977,9.752848897439693
Science & Technology,1444,7.123476888165359
Howto & Style,498,2.456711558383898
Film and Animation,240,1.1839573775344088
Entertainment,180,0.8879680331508065
Nonprofits & Activism,109,0.5377139756302106
News & Politics,72,0.35518721326032265
Pets & Animals,70,0.3453209017808692
Comedy,65,0.3206551230822357
Music,51,0.25159094272606186
Sports,48,0.23679147550688176
Travel & Events,37,0.18252676236988802
Autos & Vehicles,35,0.1726604508904346
Gaming,33,0.1627941394109812
,5,0.024665778698633515
